…
HERE -- xmin should really be the minimum actual value within a bin that
contains the mode. No need for it to be a somewhat artificial bin break. That
was for MLE on individuals, need to think what to do for MLEbins.

HERE -- see Crustacea first. Doing amalgamation of all data to just determine xmin
(resulting size spectrum doesn't really make sense).

HERE -- see other HERE's down below; this won't build right now. Might when fix crustacea.

# Methods development (keeping notes here, then deleting as make progress)

sizeSpectra::negLL.PLB.bins.species() needs (just the first year here):

> dataBinForLike
# A tibble: 907 × 4
   SpecCode  wmin  wmax  Number
      <int> <dbl> <dbl>   <dbl>
 1   105814  315.  337. 0.00714
 2   105814  337.  360. 0.00714
 3   105814  434.  461. 0.00714
 4   105814  489.  518. 0.0293
 5   105814  518.  548. 0.0109
 6   105814  548.  579. 0.0113
 7   105814  612.  646. 0.0218
 8   105814  646.  680. 0.0188
 9   105814  680.  717. 0.0381
10   105814  717.  754. 0.0327
# ℹ 897 more rows
…
