…
Specifically we fit the size spectrum for the small cephalopoda species
group in the fishing grounds strata (reproducing Fig. B.14 of
[\[3\]](https://www.sciencedirect.com/science/article/pii/S2351989426001769)).
For brevity the wrangling for that (see the
[fit-data-mlebins.html](https://andrew-edwards.github.io/sizeSpectraFit/vignettes/fit-data-mlebins.html)
vignette) has already been done and the required dataset saved in the
package as a tibble of data where each row represents a species-bin
combination, including the count for that bin:

``` r
data_cephsmall_fg
#> # A tibble: 28 × 4
#>    species         bin_min bin_max bin_count
#>    <fct>             <dbl>   <dbl>     <dbl>
#>  1 Abralia veranyi    2.46    2.60     61.3 
#>  2 Abralia veranyi    2.60    2.75     64.6 
#>  3 Abralia veranyi    2.89    3.05      7.35
#>  4 Illex coindetii    3.14    3.35     43.9 
#>  5 Abralia veranyi    3.35    3.51     14.8 
#>  6 Abralia veranyi    3.51    3.67     64.8 
#>  7 Abralia veranyi    3.67    3.83     79.4 
#>  8 Illex coindetii    3.79    4.03     43.2 
#>  9 Abralia veranyi    3.83    3.99     58.4 
#> 10 Abralia veranyi    3.99    4.16     29.4 
#> # ℹ 18 more rows
```
…
