Fitting length data and related species-specific body-mass relationships – MLEbins method
…
The raw data

We use real data of measured lengths from experimental trawl surveys
conducted in the Northwestern Mediterranean Sea, as part of the research
projects RESNEP and BITER by the Instituto de Ciencias del Mar
(ICM-CSIC), Spain; data courtesy of Juliana Quevedo, Joan B. Company,
Nixon Bahamon, and Jordi Ribera Altimir, as used in Quevedo
et al. (2026).

The full raw data are available in sizeSpectraFit as

mediterranean_data
  # A tibble: 17,850 × 5
     strata   group          species                   length number
     <fct>    <fct>          <fct>                      <dbl>  <dbl>
   1 baseline Actinopterygii Phycis blennoides          124    30.3 
   2 baseline Crustacea      Nephrops norvegicus         31.0  15.2 
   3 baseline Crustacea      Nephrops norvegicus         30.4   7.58
   4 baseline Actinopterygii Phycis blennoides          122    30.3 
   5 baseline Actinopterygii Helicolenus dactylopterus  140     7.58
   6 baseline Crustacea      Nephrops norvegicus         31.0  15.2 
   7 baseline Actinopterygii Phycis blennoides          128    30.3 
   8 baseline Crustacea      Nephrops norvegicus         38.1   7.58
   9 baseline Actinopterygii Phycis blennoides          148    30.3 
  10 baseline Actinopterygii Phycis blennoides          127    30.3 
  # ℹ 17,840 more rows
…
We also have the species-specific length-weight coefficients \(\alpha\) and \(\beta\) for each species:

mediterranean_length_weight_coefficients
  # A tibble: 53 × 3
     species                      alpha  beta
     <fct>                        <dbl> <dbl>
   1 Abralia veranyi             0.689   1.42
   2 Aegaeon lacazei             0.0275  2.44
   3 Argentina sphyraena         0.0047  3.05
   4 Arnoglossus rueppelii       0.0051  3.01
   5 Bathypolypus sponsalis      0.562   2.56
   6 Capros aper                 0.0138  3.11
   7 Chlorotocus crassicornis    0.585   2.43
   8 Conger conger               0.0006  3.21
   9 Eusergestes arcticus        0.287   2.31
  10 Gaidropsarus macrophthalmus 0.0075  2.85
  # ℹ 43 more rows
…
Wrangling the data

We first wrangle the data into the format required for using the
MLEbins method. Similar wrangling would need to be done for users’ data
to get the required inputs for the likelihood calculations.

For demonstration purposes we will fit the size spectrum for just one
species group (Cephalopoda) and for one strata, the fishing grounds
(fg). So we first filter to obtain just those values:

dat <- dplyr::filter(mediterranean_data,
                     strata == "fg",
                     group == "Cephalopoda")
dat
  # A tibble: 157 × 5
     strata group       species              length number
     <fct>  <fct>       <fct>                 <dbl>  <dbl>
   1 fg     Cephalopoda Abralia veranyi          42  58.8 
   2 fg     Cephalopoda Todarodes sagittatus    294   7.35
   3 fg     Cephalopoda Todarodes sagittatus    185   7.35
   4 fg     Cephalopoda Todarodes sagittatus    269   7.35
   5 fg     Cephalopoda Todaropsis eblanae      116   7.35
   6 fg     Cephalopoda Todaropsis eblanae      126   7.35
   7 fg     Cephalopoda Todaropsis eblanae       87   7.35
   8 fg     Cephalopoda Todaropsis eblanae      130   7.35
   9 fg     Cephalopoda Todaropsis eblanae       94   7.35
  10 fg     Cephalopoda Todaropsis eblanae      120   7.35
  # ℹ 147 more rows
…
This conversion is done using calc_bin_breaks(), which
takes a tibble that contains a column of measurements and appends
minimum and maximum values for each bin (see
?calc_bin_breaks):

dat_with_breaks <- calc_bin_breaks(dat,
                                   bin_width = 1) %>%
  dplyr::rename(bin_count = number)
dat_with_breaks
  # A tibble: 157 × 7
     strata group       species         length bin_count length_bin_min length_bin_max
     <fct>  <fct>       <fct>            <dbl>     <dbl>          <dbl>          <dbl>
   1 fg     Cephalopoda Abralia veranyi     42     58.8            41.5           42.5
   2 fg     Cephalopoda Todarodes sagi…    294      7.35          294.           294. 
   3 fg     Cephalopoda Todarodes sagi…    185      7.35          184.           186. 
   4 fg     Cephalopoda Todarodes sagi…    269      7.35          268.           270. 
   5 fg     Cephalopoda Todaropsis ebl…    116      7.35          116.           116. 
   6 fg     Cephalopoda Todaropsis ebl…    126      7.35          126.           126. 
   7 fg     Cephalopoda Todaropsis ebl…     87      7.35           86.5           87.5
   8 fg     Cephalopoda Todaropsis ebl…    130      7.35          130.           130. 
   9 fg     Cephalopoda Todaropsis ebl…     94      7.35           93.5           94.5
  10 fg     Cephalopoda Todaropsis ebl…    120      7.35          120.           120. 
  # ℹ 147 more rows

We then convert data of counts of species in length bins to counts in
body-mass bins calculated using the species-specific length-weight
coefficients. This is done using
length_bins_to_body_mass_bins()

dat_joined <-
  length_bins_to_body_mass_bins(dat_with_breaks,
                                mediterranean_length_weight_coefficients,
                                length_data_unit = "mm")
dat_joined
  # A tibble: 157 × 11
     strata group  species length bin_count length_bin_min length_bin_max  alpha  beta
     <fct>  <fct>  <fct>    <dbl>     <dbl>          <dbl>          <dbl>  <dbl> <dbl>
   1 fg     Cepha… Abrali…     42     58.8            4.15           4.25 0.689   1.42
   2 fg     Cepha… Todaro…    294      7.35          29.4           29.4  0.0102  3.31
   3 fg     Cepha… Todaro…    185      7.35          18.4           18.6  0.0102  3.31
   4 fg     Cepha… Todaro…    269      7.35          26.8           27.0  0.0102  3.31
   5 fg     Cepha… Todaro…    116      7.35          11.6           11.6  0.0996  2.79
   6 fg     Cepha… Todaro…    126      7.35          12.6           12.6  0.0996  2.79
   7 fg     Cepha… Todaro…     87      7.35           8.65           8.75 0.0996  2.79
   8 fg     Cepha… Todaro…    130      7.35          13.0           13.0  0.0996  2.79
   9 fg     Cepha… Todaro…     94      7.35           9.35           9.45 0.0996  2.79
  10 fg     Cepha… Todaro…    120      7.35          12.0           12.0  0.0996  2.79
  # ℹ 147 more rows
  # ℹ 2 more variables: weight_bin_min <dbl>, weight_bin_max <dbl>
…
data_cephsmall_fg <- mediterranean_for_mlebins(dat_joined) %>%
  dplyr::filter(bin_min < 20.9) %>%
  dplyr::arrange(bin_min)
data_cephsmall_fg
  # A tibble: 29 × 4
     species         bin_min bin_max bin_count
     <fct>             <dbl>   <dbl>     <dbl>
   1 Abralia veranyi    2.46    2.60     61.3 
   2 Abralia veranyi    2.60    2.75     64.6 
   3 Abralia veranyi    2.89    3.05      7.35
   4 Illex coindetii    3.14    3.35     43.9 
   5 Abralia veranyi    3.35    3.51     14.8 
   6 Abralia veranyi    3.51    3.67     64.8 
   7 Abralia veranyi    3.67    3.83     79.4 
   8 Illex coindetii    3.79    4.03     43.2 
   9 Abralia veranyi    3.83    3.99     58.4 
  10 Abralia veranyi    3.99    4.16     29.4 
  # ℹ 19 more rows
…
res_cephsmall_fg <- determine_xmin_and_fit_mlebins(data_cephsmall_fg)

The results are

res_cephsmall_fg
  $mlebins_fit
  $b_mle
  [1] -2.997532
  
  $b_conf
  [1] -3.162692 -2.836292
  
  $data
  # A tibble: 25 × 7
     species         bin_min bin_max bin_count count_gte_bin_min low_count high_count
     <fct>             <dbl>   <dbl>     <dbl>             <dbl>     <dbl>      <dbl>
   1 Illex coindetii    3.14    3.35     43.9               952.      908.       952.
   2 Abralia veranyi    3.35    3.51     14.8               908.      893.       908.
   3 Abralia veranyi    3.51    3.67     64.8               893.      829.       893.
   4 Abralia veranyi    3.67    3.83     79.4               829.      706.       829.
   5 Illex coindetii    3.79    4.03     43.2               749.      618.       829.
   6 Abralia veranyi    3.83    3.99     58.4               706.      648.       749.
   7 Abralia veranyi    3.99    4.16     29.4               648.      618.       691.
   8 Abralia veranyi    4.16    4.33     75.9               618.      542.       618.
   9 Abralia veranyi    4.33    4.49      7.44              542.      535.       542.
  10 Abralia veranyi    4.49    4.67     14.7               535.      520.       535.
  # ℹ 15 more rows
…
